<?xml version="1.0" encoding="UTF-8"?>
<dia:diagram xmlns:dia="http://www.lysator.liu.se/~alla/dia/">
  <dia:diagramdata>
    <dia:attribute name="background">
      <dia:color val="#ffffff"/>
    </dia:attribute>
    <dia:attribute name="pagebreak">
      <dia:color val="#000099"/>
    </dia:attribute>
    <dia:attribute name="paper">
      <dia:composite type="paper">
        <dia:attribute name="name">
          <dia:string>#A4#</dia:string>
        </dia:attribute>
        <dia:attribute name="tmargin">
          <dia:real val="2.8222000598907471"/>
        </dia:attribute>
        <dia:attribute name="bmargin">
          <dia:real val="2.8222000598907471"/>
        </dia:attribute>
        <dia:attribute name="lmargin">
          <dia:real val="2.8222000598907471"/>
        </dia:attribute>
        <dia:attribute name="rmargin">
          <dia:real val="2.8222000598907471"/>
        </dia:attribute>
        <dia:attribute name="is_portrait">
          <dia:boolean val="true"/>
        </dia:attribute>
        <dia:attribute name="scaling">
          <dia:real val="1"/>
        </dia:attribute>
        <dia:attribute name="fitto">
          <dia:boolean val="false"/>
        </dia:attribute>
      </dia:composite>
    </dia:attribute>
    <dia:attribute name="grid">
      <dia:composite type="grid">
        <dia:attribute name="width_x">
          <dia:real val="1"/>
        </dia:attribute>
        <dia:attribute name="width_y">
          <dia:real val="1"/>
        </dia:attribute>
        <dia:attribute name="visible_x">
          <dia:int val="1"/>
        </dia:attribute>
        <dia:attribute name="visible_y">
          <dia:int val="1"/>
        </dia:attribute>
        <dia:composite type="color"/>
      </dia:composite>
    </dia:attribute>
    <dia:attribute name="color">
      <dia:color val="#d8e5e5"/>
    </dia:attribute>
    <dia:attribute name="guides">
      <dia:composite type="guides">
        <dia:attribute name="hguides"/>
        <dia:attribute name="vguides"/>
      </dia:composite>
    </dia:attribute>
  </dia:diagramdata>
  <dia:layer name="Background" visible="true" active="true">
    <dia:object type="ER - Entity" version="0" id="O0">
      <dia:attribute name="obj_pos">
        <dia:point val="18,9"/>
      </dia:attribute>
      <dia:attribute name="obj_bb">
        <dia:rectangle val="17.95,8.95;20.99,10.85"/>
      </dia:attribute>
      <dia:attribute name="elem_corner">
        <dia:point val="18,9"/>
      </dia:attribute>
      <dia:attribute name="elem_width">
        <dia:real val="2.9399999999999999"/>
      </dia:attribute>
      <dia:attribute name="elem_height">
        <dia:real val="1.8"/>
      </dia:attribute>
      <dia:attribute name="border_width">
        <dia:real val="0.10000000000000001"/>
      </dia:attribute>
      <dia:attribute name="border_color">
        <dia:color val="#000000"/>
      </dia:attribute>
      <dia:attribute name="inner_color">
        <dia:color val="#ffffff"/>
      </dia:attribute>
      <dia:attribute name="name">
        <dia:string>#USER#</dia:string>
      </dia:attribute>
      <dia:attribute name="weak">
        <dia:boolean val="false"/>
      </dia:attribute>
      <dia:attribute name="associative">
        <dia:boolean val="false"/>
      </dia:attribute>
      <dia:attribute name="font">
        <dia:font family="monospace" style="0" name="Courier"/>
      </dia:attribute>
      <dia:attribute name="font_height">
        <dia:real val="0.80000000000000004"/>
      </dia:attribute>
    </dia:object>
    <dia:object type="ER - Attribute" version="0" id="O1">
      <dia:attribute name="obj_pos">
        <dia:point val="13,6"/>
      </dia:attribute>
      <dia:attribute name="obj_bb">
        <dia:rectangle val="12.95,5.95;15.82,7.85"/>
      </dia:attribute>
      <dia:attribute name="elem_corner">
        <dia:point val="13,6"/>
      </dia:attribute>
      <dia:attribute name="elem_width">
        <dia:real val="2.77"/>
      </dia:attribute>
      <dia:attribute name="elem_height">
        <dia:real val="1.8"/>
      </dia:attribute>
      <dia:attribute name="border_width">
        <dia:real val="0.10000000000000001"/>
      </dia:attribute>
      <dia:attribute name="border_color">
        <dia:color val="#000000"/>
      </dia:attribute>
      <dia:attribute name="inner_color">
        <dia:color val="#ffffff"/>
      </dia:attribute>
      <dia:attribute name="name">
        <dia:string>#id#</dia:string>
      </dia:attribute>
      <dia:attribute name="key">
        <dia:boolean val="true"/>
      </dia:attribute>
      <dia:attribute name="weak_key">
        <dia:boolean val="false"/>
      </dia:attribute>
      <dia:attribute name="derived">
        <dia:boolean val="false"/>
      </dia:attribute>
      <dia:attribute name="multivalued">
        <dia:boolean val="false"/>
      </dia:attribute>
      <dia:attribute name="font">
        <dia:font family="monospace" style="0" name="Courier"/>
      </dia:attribute>
      <dia:attribute name="font_height">
        <dia:real val="0.80000000000000004"/>
      </dia:attribute>
    </dia:object>
    <dia:object type="ER - Attribute" version="0" id="O2">
      <dia:attribute name="obj_pos">
        <dia:point val="12,9"/>
      </dia:attribute>
      <dia:attribute name="obj_bb">
        <dia:rectangle val="11.95,8.95;15.975,10.85"/>
      </dia:attribute>
      <dia:attribute name="elem_corner">
        <dia:point val="12,9"/>
      </dia:attribute>
      <dia:attribute name="elem_width">
        <dia:real val="3.9249999999999998"/>
      </dia:attribute>
      <dia:attribute name="elem_height">
        <dia:real val="1.8"/>
      </dia:attribute>
      <dia:attribute name="border_width">
        <dia:real val="0.10000000000000001"/>
      </dia:attribute>
      <dia:attribute name="border_color">
        <dia:color val="#000000"/>
      </dia:attribute>
      <dia:attribute name="inner_color">
        <dia:color val="#ffffff"/>
      </dia:attribute>
      <dia:attribute name="name">
        <dia:string>#admin#</dia:string>
      </dia:attribute>
      <dia:attribute name="key">
        <dia:boolean val="false"/>
      </dia:attribute>
      <dia:attribute name="weak_key">
        <dia:boolean val="false"/>
      </dia:attribute>
      <dia:attribute name="derived">
        <dia:boolean val="false"/>
      </dia:attribute>
      <dia:attribute name="multivalued">
        <dia:boolean val="false"/>
      </dia:attribute>
      <dia:attribute name="font">
        <dia:font family="monospace" style="0" name="Courier"/>
      </dia:attribute>
      <dia:attribute name="font_height">
        <dia:real val="0.80000000000000004"/>
      </dia:attribute>
    </dia:object>
    <dia:object type="ER - Participation" version="1" id="O3">
      <dia:attribute name="obj_pos">
        <dia:point val="15.8204,6.9"/>
      </dia:attribute>
      <dia:attribute name="obj_bb">
        <dia:rectangle val="15.7704,6.85;17.9996,9.95"/>
      </dia:attribute>
      <dia:attribute name="orth_points">
        <dia:point val="15.8204,6.9"/>
        <dia:point val="16.885,6.9"/>
        <dia:point val="16.885,9.9"/>
        <dia:point val="17.9496,9.9"/>
      </dia:attribute>
      <dia:attribute name="orth_orient">
        <dia:enum val="0"/>
        <dia:enum val="1"/>
        <dia:enum val="0"/>
      </dia:attribute>
      <dia:attribute name="autorouting">
        <dia:boolean val="true"/>
      </dia:attribute>
      <dia:attribute name="total">
        <dia:boolean val="false"/>
      </dia:attribute>
      <dia:connections>
        <dia:connection handle="0" to="O1" connection="8"/>
        <dia:connection handle="1" to="O0" connection="8"/>
      </dia:connections>
    </dia:object>
    <dia:object type="ER - Participation" version="1" id="O4">
      <dia:attribute name="obj_pos">
        <dia:point val="15.9755,9.9"/>
      </dia:attribute>
      <dia:attribute name="obj_bb">
        <dia:rectangle val="15.9255,9.85;17.9996,9.95"/>
      </dia:attribute>
      <dia:attribute name="orth_points">
        <dia:point val="15.9755,9.9"/>
        <dia:point val="16.0255,9.9"/>
        <dia:point val="17.8996,9.9"/>
        <dia:point val="17.9496,9.9"/>
      </dia:attribute>
      <dia:attribute name="orth_orient">
        <dia:enum val="0"/>
        <dia:enum val="1"/>
        <dia:enum val="0"/>
      </dia:attribute>
      <dia:attribute name="autorouting">
        <dia:boolean val="true"/>
      </dia:attribute>
      <dia:attribute name="total">
        <dia:boolean val="false"/>
      </dia:attribute>
      <dia:connections>
        <dia:connection handle="0" to="O2" connection="8"/>
        <dia:connection handle="1" to="O0" connection="8"/>
      </dia:connections>
    </dia:object>
    <dia:object type="ER - Entity" version="0" id="O5">
      <dia:attribute name="obj_pos">
        <dia:point val="18,20"/>
      </dia:attribute>
      <dia:attribute name="obj_bb">
        <dia:rectangle val="17.95,19.95;21.375,21.85"/>
      </dia:attribute>
      <dia:attribute name="elem_corner">
        <dia:point val="18,20"/>
      </dia:attribute>
      <dia:attribute name="elem_width">
        <dia:real val="3.3250000000000002"/>
      </dia:attribute>
      <dia:attribute name="elem_height">
        <dia:real val="1.8"/>
      </dia:attribute>
      <dia:attribute name="border_width">
        <dia:real val="0.10000000000000001"/>
      </dia:attribute>
      <dia:attribute name="border_color">
        <dia:color val="#000000"/>
      </dia:attribute>
      <dia:attribute name="inner_color">
        <dia:color val="#ffffff"/>
      </dia:attribute>
      <dia:attribute name="name">
        <dia:string>#GROUP#</dia:string>
      </dia:attribute>
      <dia:attribute name="weak">
        <dia:boolean val="false"/>
      </dia:attribute>
      <dia:attribute name="associative">
        <dia:boolean val="false"/>
      </dia:attribute>
      <dia:attribute name="font">
        <dia:font family="monospace" style="0" name="Courier"/>
      </dia:attribute>
      <dia:attribute name="font_height">
        <dia:real val="0.80000000000000004"/>
      </dia:attribute>
    </dia:object>
    <dia:object type="ER - Attribute" version="0" id="O6">
      <dia:attribute name="obj_pos">
        <dia:point val="13,20"/>
      </dia:attribute>
      <dia:attribute name="obj_bb">
        <dia:rectangle val="12.95,19.95;15.82,21.85"/>
      </dia:attribute>
      <dia:attribute name="elem_corner">
        <dia:point val="13,20"/>
      </dia:attribute>
      <dia:attribute name="elem_width">
        <dia:real val="2.77"/>
      </dia:attribute>
      <dia:attribute name="elem_height">
        <dia:real val="1.8"/>
      </dia:attribute>
      <dia:attribute name="border_width">
        <dia:real val="0.10000000000000001"/>
      </dia:attribute>
      <dia:attribute name="border_color">
        <dia:color val="#000000"/>
      </dia:attribute>
      <dia:attribute name="inner_color">
        <dia:color val="#ffffff"/>
      </dia:attribute>
      <dia:attribute name="name">
        <dia:string>#id#</dia:string>
      </dia:attribute>
      <dia:attribute name="key">
        <dia:boolean val="true"/>
      </dia:attribute>
      <dia:attribute name="weak_key">
        <dia:boolean val="false"/>
      </dia:attribute>
      <dia:attribute name="derived">
        <dia:boolean val="false"/>
      </dia:attribute>
      <dia:attribute name="multivalued">
        <dia:boolean val="false"/>
      </dia:attribute>
      <dia:attribute name="font">
        <dia:font family="monospace" style="0" name="Courier"/>
      </dia:attribute>
      <dia:attribute name="font_height">
        <dia:real val="0.80000000000000004"/>
      </dia:attribute>
    </dia:object>
    <dia:object type="ER - Participation" version="1" id="O7">
      <dia:attribute name="obj_pos">
        <dia:point val="17.9496,20.9"/>
      </dia:attribute>
      <dia:attribute name="obj_bb">
        <dia:rectangle val="15.7704,20.85;17.9996,20.95"/>
      </dia:attribute>
      <dia:attribute name="orth_points">
        <dia:point val="17.9496,20.9"/>
        <dia:point val="17.8996,20.9"/>
        <dia:point val="15.8704,20.9"/>
        <dia:point val="15.8204,20.9"/>
      </dia:attribute>
      <dia:attribute name="orth_orient">
        <dia:enum val="0"/>
        <dia:enum val="1"/>
        <dia:enum val="0"/>
      </dia:attribute>
      <dia:attribute name="autorouting">
        <dia:boolean val="true"/>
      </dia:attribute>
      <dia:attribute name="total">
        <dia:boolean val="false"/>
      </dia:attribute>
      <dia:connections>
        <dia:connection handle="0" to="O5" connection="8"/>
        <dia:connection handle="1" to="O6" connection="8"/>
      </dia:connections>
    </dia:object>
    <dia:object type="ER - Relationship" version="0" id="O8">
      <dia:attribute name="obj_pos">
        <dia:point val="15,14"/>
      </dia:attribute>
      <dia:attribute name="obj_bb">
        <dia:rectangle val="14.65,13.95;18.505,15.943"/>
      </dia:attribute>
      <dia:attribute name="elem_corner">
        <dia:point val="15,14"/>
      </dia:attribute>
      <dia:attribute name="elem_width">
        <dia:real val="3.1550000000000002"/>
      </dia:attribute>
      <dia:attribute name="elem_height">
        <dia:real val="1.893"/>
      </dia:attribute>
      <dia:attribute name="border_width">
        <dia:real val="0.10000000000000001"/>
      </dia:attribute>
      <dia:attribute name="border_color">
        <dia:color val="#000000"/>
      </dia:attribute>
      <dia:attribute name="inner_color">
        <dia:color val="#ffffff"/>
      </dia:attribute>
      <dia:attribute name="name">
        <dia:string>#has#</dia:string>
      </dia:attribute>
      <dia:attribute name="left_card">
        <dia:string>##</dia:string>
      </dia:attribute>
      <dia:attribute name="right_card">
        <dia:string>##</dia:string>
      </dia:attribute>
      <dia:attribute name="identifying">
        <dia:boolean val="false"/>
      </dia:attribute>
      <dia:attribute name="rotated">
        <dia:boolean val="false"/>
      </dia:attribute>
      <dia:attribute name="font">
        <dia:font family="monospace" style="0" name="Courier"/>
      </dia:attribute>
      <dia:attribute name="font_height">
        <dia:real val="0.80000000000000004"/>
      </dia:attribute>
    </dia:object>
    <dia:object type="ER - Participation" version="1" id="O9">
      <dia:attribute name="obj_pos">
        <dia:point val="19.47,10.8505"/>
      </dia:attribute>
      <dia:attribute name="obj_bb">
        <dia:rectangle val="16.5275,10.8005;19.52,13.9995"/>
      </dia:attribute>
      <dia:attribute name="orth_points">
        <dia:point val="19.47,10.8505"/>
        <dia:point val="19.47,12.4"/>
        <dia:point val="16.5775,12.4"/>
        <dia:point val="16.5775,13.9495"/>
      </dia:attribute>
      <dia:attribute name="orth_orient">
        <dia:enum val="1"/>
        <dia:enum val="0"/>
        <dia:enum val="1"/>
      </dia:attribute>
      <dia:attribute name="autorouting">
        <dia:boolean val="true"/>
      </dia:attribute>
      <dia:attribute name="total">
        <dia:boolean val="false"/>
      </dia:attribute>
      <dia:connections>
        <dia:connection handle="0" to="O0" connection="8"/>
        <dia:connection handle="1" to="O8" connection="8"/>
      </dia:connections>
    </dia:object>
    <dia:object type="ER - Participation" version="1" id="O10">
      <dia:attribute name="obj_pos">
        <dia:point val="16.5775,15.9435"/>
      </dia:attribute>
      <dia:attribute name="obj_bb">
        <dia:rectangle val="16.5275,15.8935;19.7125,19.9995"/>
      </dia:attribute>
      <dia:attribute name="orth_points">
        <dia:point val="16.5775,15.9435"/>
        <dia:point val="16.5775,17.9465"/>
        <dia:point val="19.6625,17.9465"/>
        <dia:point val="19.6625,19.9495"/>
      </dia:attribute>
      <dia:attribute name="orth_orient">
        <dia:enum val="1"/>
        <dia:enum val="0"/>
        <dia:enum val="1"/>
      </dia:attribute>
      <dia:attribute name="autorouting">
        <dia:boolean val="true"/>
      </dia:attribute>
      <dia:attribute name="total">
        <dia:boolean val="false"/>
      </dia:attribute>
      <dia:connections>
        <dia:connection handle="0" to="O8" connection="8"/>
        <dia:connection handle="1" to="O5" connection="8"/>
      </dia:connections>
    </dia:object>
    <dia:object type="ER - Entity" version="0" id="O11">
      <dia:attribute name="obj_pos">
        <dia:point val="38,7"/>
      </dia:attribute>
      <dia:attribute name="obj_bb">
        <dia:rectangle val="37.95,6.95;41.375,8.85"/>
      </dia:attribute>
      <dia:attribute name="elem_corner">
        <dia:point val="38,7"/>
      </dia:attribute>
      <dia:attribute name="elem_width">
        <dia:real val="3.3250000000000002"/>
      </dia:attribute>
      <dia:attribute name="elem_height">
        <dia:real val="1.8"/>
      </dia:attribute>
      <dia:attribute name="border_width">
        <dia:real val="0.10000000000000001"/>
      </dia:attribute>
      <dia:attribute name="border_color">
        <dia:color val="#000000"/>
      </dia:attribute>
      <dia:attribute name="inner_color">
        <dia:color val="#ffffff"/>
      </dia:attribute>
      <dia:attribute name="name">
        <dia:string>#ISSUE#</dia:string>
      </dia:attribute>
      <dia:attribute name="weak">
        <dia:boolean val="false"/>
      </dia:attribute>
      <dia:attribute name="associative">
        <dia:boolean val="false"/>
      </dia:attribute>
      <dia:attribute name="font">
        <dia:font family="monospace" style="0" name="Courier"/>
      </dia:attribute>
      <dia:attribute name="font_height">
        <dia:real val="0.80000000000000004"/>
      </dia:attribute>
    </dia:object>
    <dia:object type="ER - Relationship" version="0" id="O12">
      <dia:attribute name="obj_pos">
        <dia:point val="24,6"/>
      </dia:attribute>
      <dia:attribute name="obj_bb">
        <dia:rectangle val="23.65,5.95;28.66,8.636"/>
      </dia:attribute>
      <dia:attribute name="elem_corner">
        <dia:point val="24,6"/>
      </dia:attribute>
      <dia:attribute name="elem_width">
        <dia:real val="4.3100000000000005"/>
      </dia:attribute>
      <dia:attribute name="elem_height">
        <dia:real val="2.5860000000000003"/>
      </dia:attribute>
      <dia:attribute name="border_width">
        <dia:real val="0.10000000000000001"/>
      </dia:attribute>
      <dia:attribute name="border_color">
        <dia:color val="#000000"/>
      </dia:attribute>
      <dia:attribute name="inner_color">
        <dia:color val="#ffffff"/>
      </dia:attribute>
      <dia:attribute name="name">
        <dia:string>#author#</dia:string>
      </dia:attribute>
      <dia:attribute name="left_card">
        <dia:string>##</dia:string>
      </dia:attribute>
      <dia:attribute name="right_card">
        <dia:string>##</dia:string>
      </dia:attribute>
      <dia:attribute name="identifying">
        <dia:boolean val="false"/>
      </dia:attribute>
      <dia:attribute name="rotated">
        <dia:boolean val="false"/>
      </dia:attribute>
      <dia:attribute name="font">
        <dia:font family="monospace" style="0" name="Courier"/>
      </dia:attribute>
      <dia:attribute name="font_height">
        <dia:real val="0.80000000000000004"/>
      </dia:attribute>
    </dia:object>
    <dia:object type="ER - Participation" version="1" id="O13">
      <dia:attribute name="obj_pos">
        <dia:point val="20.94,9.9"/>
      </dia:attribute>
      <dia:attribute name="obj_bb">
        <dia:rectangle val="20.89,7.243;24.0003,9.95"/>
      </dia:attribute>
      <dia:attribute name="orth_points">
        <dia:point val="20.94,9.9"/>
        <dia:point val="22.4451,9.9"/>
        <dia:point val="22.4451,7.293"/>
        <dia:point val="23.9503,7.293"/>
      </dia:attribute>
      <dia:attribute name="orth_orient">
        <dia:enum val="0"/>
        <dia:enum val="1"/>
        <dia:enum val="0"/>
      </dia:attribute>
      <dia:attribute name="autorouting">
        <dia:boolean val="true"/>
      </dia:attribute>
      <dia:attribute name="total">
        <dia:boolean val="false"/>
      </dia:attribute>
      <dia:connections>
        <dia:connection handle="0" to="O0" connection="4"/>
        <dia:connection handle="1" to="O12" connection="8"/>
      </dia:connections>
    </dia:object>
    <dia:object type="ER - Participation" version="1" id="O14">
      <dia:attribute name="obj_pos">
        <dia:point val="28.3542,7.293"/>
      </dia:attribute>
      <dia:attribute name="obj_bb">
        <dia:rectangle val="28.3042,7.243;38.0005,7.95"/>
      </dia:attribute>
      <dia:attribute name="orth_points">
        <dia:point val="28.3542,7.293"/>
        <dia:point val="33,7.293"/>
        <dia:point val="33,7.9"/>
        <dia:point val="37.9505,7.9"/>
      </dia:attribute>
      <dia:attribute name="orth_orient">
        <dia:enum val="0"/>
        <dia:enum val="1"/>
        <dia:enum val="0"/>
      </dia:attribute>
      <dia:attribute name="autorouting">
        <dia:boolean val="false"/>
      </dia:attribute>
      <dia:attribute name="total">
        <dia:boolean val="false"/>
      </dia:attribute>
      <dia:connections>
        <dia:connection handle="0" to="O12" connection="8"/>
        <dia:connection handle="1" to="O11" connection="8"/>
      </dia:connections>
    </dia:object>
    <dia:object type="ER - Relationship" version="0" id="O15">
      <dia:attribute name="obj_pos">
        <dia:point val="27,16"/>
      </dia:attribute>
      <dia:attribute name="obj_bb">
        <dia:rectangle val="26.65,15.95;32.045,18.867"/>
      </dia:attribute>
      <dia:attribute name="elem_corner">
        <dia:point val="27,16"/>
      </dia:attribute>
      <dia:attribute name="elem_width">
        <dia:real val="4.6950000000000003"/>
      </dia:attribute>
      <dia:attribute name="elem_height">
        <dia:real val="2.8170000000000002"/>
      </dia:attribute>
      <dia:attribute name="border_width">
        <dia:real val="0.10000000000000001"/>
      </dia:attribute>
      <dia:attribute name="border_color">
        <dia:color val="#000000"/>
      </dia:attribute>
      <dia:attribute name="inner_color">
        <dia:color val="#ffffff"/>
      </dia:attribute>
      <dia:attribute name="name">
        <dia:string>#relates#</dia:string>
      </dia:attribute>
      <dia:attribute name="left_card">
        <dia:string>##</dia:string>
      </dia:attribute>
      <dia:attribute name="right_card">
        <dia:string>##</dia:string>
      </dia:attribute>
      <dia:attribute name="identifying">
        <dia:boolean val="false"/>
      </dia:attribute>
      <dia:attribute name="rotated">
        <dia:boolean val="false"/>
      </dia:attribute>
      <dia:attribute name="font">
        <dia:font family="monospace" style="0" name="Courier"/>
      </dia:attribute>
      <dia:attribute name="font_height">
        <dia:real val="0.80000000000000004"/>
      </dia:attribute>
    </dia:object>
    <dia:object type="ER - Participation" version="1" id="O16">
      <dia:attribute name="obj_pos">
        <dia:point val="37.9496,7.9"/>
      </dia:attribute>
      <dia:attribute name="obj_bb">
        <dia:rectangle val="31.695,7.85;37.9996,17.4585"/>
      </dia:attribute>
      <dia:attribute name="orth_points">
        <dia:point val="37.9496,7.9"/>
        <dia:point val="34.8473,7.9"/>
        <dia:point val="34.8473,17.4085"/>
        <dia:point val="31.745,17.4085"/>
      </dia:attribute>
      <dia:attribute name="orth_orient">
        <dia:enum val="0"/>
        <dia:enum val="1"/>
        <dia:enum val="0"/>
      </dia:attribute>
      <dia:attribute name="autorouting">
        <dia:boolean val="true"/>
      </dia:attribute>
      <dia:attribute name="total">
        <dia:boolean val="false"/>
      </dia:attribute>
      <dia:connections>
        <dia:connection handle="0" to="O11" connection="8"/>
        <dia:connection handle="1" to="O15" connection="8"/>
      </dia:connections>
    </dia:object>
    <dia:object type="ER - Participation" version="1" id="O17">
      <dia:attribute name="obj_pos">
        <dia:point val="26.95,17.4085"/>
      </dia:attribute>
      <dia:attribute name="obj_bb">
        <dia:rectangle val="21.3254,17.3585;27,20.95"/>
      </dia:attribute>
      <dia:attribute name="orth_points">
        <dia:point val="26.95,17.4085"/>
        <dia:point val="24.1627,17.4085"/>
        <dia:point val="24.1627,20.9"/>
        <dia:point val="21.3754,20.9"/>
      </dia:attribute>
      <dia:attribute name="orth_orient">
        <dia:enum val="0"/>
        <dia:enum val="1"/>
        <dia:enum val="0"/>
      </dia:attribute>
      <dia:attribute name="autorouting">
        <dia:boolean val="true"/>
      </dia:attribute>
      <dia:attribute name="total">
        <dia:boolean val="false"/>
      </dia:attribute>
      <dia:connections>
        <dia:connection handle="0" to="O15" connection="8"/>
        <dia:connection handle="1" to="O5" connection="8"/>
      </dia:connections>
    </dia:object>
    <dia:object type="ER - Entity" version="0" id="O18">
      <dia:attribute name="obj_pos">
        <dia:point val="40,18"/>
      </dia:attribute>
      <dia:attribute name="obj_bb">
        <dia:rectangle val="39.95,17.95;43.375,19.85"/>
      </dia:attribute>
      <dia:attribute name="elem_corner">
        <dia:point val="40,18"/>
      </dia:attribute>
      <dia:attribute name="elem_width">
        <dia:real val="3.3250000000000002"/>
      </dia:attribute>
      <dia:attribute name="elem_height">
        <dia:real val="1.8"/>
      </dia:attribute>
      <dia:attribute name="border_width">
        <dia:real val="0.10000000000000001"/>
      </dia:attribute>
      <dia:attribute name="border_color">
        <dia:color val="#000000"/>
      </dia:attribute>
      <dia:attribute name="inner_color">
        <dia:color val="#ffff00"/>
      </dia:attribute>
      <dia:attribute name="name">
        <dia:string>#MODEL#</dia:string>
      </dia:attribute>
      <dia:attribute name="weak">
        <dia:boolean val="false"/>
      </dia:attribute>
      <dia:attribute name="associative">
        <dia:boolean val="false"/>
      </dia:attribute>
      <dia:attribute name="font">
        <dia:font family="monospace" style="0" name="Courier"/>
      </dia:attribute>
      <dia:attribute name="font_height">
        <dia:real val="0.80000000000000004"/>
      </dia:attribute>
    </dia:object>
    <dia:object type="ER - Entity" version="0" id="O19">
      <dia:attribute name="obj_pos">
        <dia:point val="40,15"/>
      </dia:attribute>
      <dia:attribute name="obj_bb">
        <dia:rectangle val="39.95,14.95;43.76,16.85"/>
      </dia:attribute>
      <dia:attribute name="elem_corner">
        <dia:point val="40,15"/>
      </dia:attribute>
      <dia:attribute name="elem_width">
        <dia:real val="3.71"/>
      </dia:attribute>
      <dia:attribute name="elem_height">
        <dia:real val="1.8"/>
      </dia:attribute>
      <dia:attribute name="border_width">
        <dia:real val="0.10000000000000001"/>
      </dia:attribute>
      <dia:attribute name="border_color">
        <dia:color val="#000000"/>
      </dia:attribute>
      <dia:attribute name="inner_color">
        <dia:color val="#ffff00"/>
      </dia:attribute>
      <dia:attribute name="name">
        <dia:string>#DEVICE#</dia:string>
      </dia:attribute>
      <dia:attribute name="weak">
        <dia:boolean val="false"/>
      </dia:attribute>
      <dia:attribute name="associative">
        <dia:boolean val="false"/>
      </dia:attribute>
      <dia:attribute name="font">
        <dia:font family="monospace" style="0" name="Courier"/>
      </dia:attribute>
      <dia:attribute name="font_height">
        <dia:real val="0.80000000000000004"/>
      </dia:attribute>
    </dia:object>
    <dia:object type="ER - Participation" version="1" id="O20">
      <dia:attribute name="obj_pos">
        <dia:point val="31.745,17.4085"/>
      </dia:attribute>
      <dia:attribute name="obj_bb">
        <dia:rectangle val="31.695,17.3585;39.9996,18.95"/>
      </dia:attribute>
      <dia:attribute name="orth_points">
        <dia:point val="31.745,17.4085"/>
        <dia:point val="35.8473,17.4085"/>
        <dia:point val="35.8473,18.9"/>
        <dia:point val="39.9496,18.9"/>
      </dia:attribute>
      <dia:attribute name="orth_orient">
        <dia:enum val="0"/>
        <dia:enum val="1"/>
        <dia:enum val="0"/>
      </dia:attribute>
      <dia:attribute name="autorouting">
        <dia:boolean val="true"/>
      </dia:attribute>
      <dia:attribute name="total">
        <dia:boolean val="false"/>
      </dia:attribute>
      <dia:connections>
        <dia:connection handle="0" to="O15" connection="8"/>
        <dia:connection handle="1" to="O18" connection="8"/>
      </dia:connections>
    </dia:object>
    <dia:object type="ER - Participation" version="1" id="O21">
      <dia:attribute name="obj_pos">
        <dia:point val="31.745,17.4085"/>
      </dia:attribute>
      <dia:attribute name="obj_bb">
        <dia:rectangle val="31.695,15.85;39.9995,17.4585"/>
      </dia:attribute>
      <dia:attribute name="orth_points">
        <dia:point val="31.745,17.4085"/>
        <dia:point val="35.8473,17.4085"/>
        <dia:point val="35.8473,15.9"/>
        <dia:point val="39.9495,15.9"/>
      </dia:attribute>
      <dia:attribute name="orth_orient">
        <dia:enum val="0"/>
        <dia:enum val="1"/>
        <dia:enum val="0"/>
      </dia:attribute>
      <dia:attribute name="autorouting">
        <dia:boolean val="true"/>
      </dia:attribute>
      <dia:attribute name="total">
        <dia:boolean val="false"/>
      </dia:attribute>
      <dia:connections>
        <dia:connection handle="0" to="O15" connection="8"/>
        <dia:connection handle="1" to="O19" connection="8"/>
      </dia:connections>
    </dia:object>
    <dia:object type="ER - Entity" version="0" id="O22">
      <dia:attribute name="obj_pos">
        <dia:point val="30,1"/>
      </dia:attribute>
      <dia:attribute name="obj_bb">
        <dia:rectangle val="29.95,0.95;34.145,2.85"/>
      </dia:attribute>
      <dia:attribute name="elem_corner">
        <dia:point val="30,1"/>
      </dia:attribute>
      <dia:attribute name="elem_width">
        <dia:real val="4.0949999999999998"/>
      </dia:attribute>
      <dia:attribute name="elem_height">
        <dia:real val="1.8"/>
      </dia:attribute>
      <dia:attribute name="border_width">
        <dia:real val="0.10000000000000001"/>
      </dia:attribute>
      <dia:attribute name="border_color">
        <dia:color val="#000000"/>
      </dia:attribute>
      <dia:attribute name="inner_color">
        <dia:color val="#ffffff"/>
      </dia:attribute>
      <dia:attribute name="name">
        <dia:string>#COMMENT#</dia:string>
      </dia:attribute>
      <dia:attribute name="weak">
        <dia:boolean val="true"/>
      </dia:attribute>
      <dia:attribute name="associative">
        <dia:boolean val="false"/>
      </dia:attribute>
      <dia:attribute name="font">
        <dia:font family="monospace" style="0" name="Courier"/>
      </dia:attribute>
      <dia:attribute name="font_height">
        <dia:real val="0.80000000000000004"/>
      </dia:attribute>
    </dia:object>
    <dia:object type="ER - Attribute" version="0" id="O23">
      <dia:attribute name="obj_pos">
        <dia:point val="33,-3"/>
      </dia:attribute>
      <dia:attribute name="obj_bb">
        <dia:rectangle val="32.95,-3.05;37.745,-1.15"/>
      </dia:attribute>
      <dia:attribute name="elem_corner">
        <dia:point val="33,-3"/>
      </dia:attribute>
      <dia:attribute name="elem_width">
        <dia:real val="4.6950000000000003"/>
      </dia:attribute>
      <dia:attribute name="elem_height">
        <dia:real val="1.8"/>
      </dia:attribute>
      <dia:attribute name="border_width">
        <dia:real val="0.10000000000000001"/>
      </dia:attribute>
      <dia:attribute name="border_color">
        <dia:color val="#000000"/>
      </dia:attribute>
      <dia:attribute name="inner_color">
        <dia:color val="#ffffff"/>
      </dia:attribute>
      <dia:attribute name="name">
        <dia:string>#content#</dia:string>
      </dia:attribute>
      <dia:attribute name="key">
        <dia:boolean val="false"/>
      </dia:attribute>
      <dia:attribute name="weak_key">
        <dia:boolean val="false"/>
      </dia:attribute>
      <dia:attribute name="derived">
        <dia:boolean val="false"/>
      </dia:attribute>
      <dia:attribute name="multivalued">
        <dia:boolean val="false"/>
      </dia:attribute>
      <dia:attribute name="font">
        <dia:font family="monospace" style="0" name="Courier"/>
      </dia:attribute>
      <dia:attribute name="font_height">
        <dia:real val="0.80000000000000004"/>
      </dia:attribute>
    </dia:object>
    <dia:object type="ER - Attribute" version="0" id="O24">
      <dia:attribute name="obj_pos">
        <dia:point val="27,-3"/>
      </dia:attribute>
      <dia:attribute name="obj_bb">
        <dia:rectangle val="26.95,-3.05;32.13,-1.15"/>
      </dia:attribute>
      <dia:attribute name="elem_corner">
        <dia:point val="27,-3"/>
      </dia:attribute>
      <dia:attribute name="elem_width">
        <dia:real val="5.0800000000000001"/>
      </dia:attribute>
      <dia:attribute name="elem_height">
        <dia:real val="1.8"/>
      </dia:attribute>
      <dia:attribute name="border_width">
        <dia:real val="0.10000000000000001"/>
      </dia:attribute>
      <dia:attribute name="border_color">
        <dia:color val="#000000"/>
      </dia:attribute>
      <dia:attribute name="inner_color">
        <dia:color val="#ffffff"/>
      </dia:attribute>
      <dia:attribute name="name">
        <dia:string>#official#</dia:string>
      </dia:attribute>
      <dia:attribute name="key">
        <dia:boolean val="false"/>
      </dia:attribute>
      <dia:attribute name="weak_key">
        <dia:boolean val="false"/>
      </dia:attribute>
      <dia:attribute name="derived">
        <dia:boolean val="false"/>
      </dia:attribute>
      <dia:attribute name="multivalued">
        <dia:boolean val="false"/>
      </dia:attribute>
      <dia:attribute name="font">
        <dia:font family="monospace" style="0" name="Courier"/>
      </dia:attribute>
      <dia:attribute name="font_height">
        <dia:real val="0.80000000000000004"/>
      </dia:attribute>
    </dia:object>
    <dia:object type="ER - Relationship" version="0" id="O25">
      <dia:attribute name="obj_pos">
        <dia:point val="37,2"/>
      </dia:attribute>
      <dia:attribute name="obj_bb">
        <dia:rectangle val="36.65,1.95;40.505,3.943"/>
      </dia:attribute>
      <dia:attribute name="elem_corner">
        <dia:point val="37,2"/>
      </dia:attribute>
      <dia:attribute name="elem_width">
        <dia:real val="3.1550000000000002"/>
      </dia:attribute>
      <dia:attribute name="elem_height">
        <dia:real val="1.893"/>
      </dia:attribute>
      <dia:attribute name="border_width">
        <dia:real val="0.10000000000000001"/>
      </dia:attribute>
      <dia:attribute name="border_color">
        <dia:color val="#000000"/>
      </dia:attribute>
      <dia:attribute name="inner_color">
        <dia:color val="#ffffff"/>
      </dia:attribute>
      <dia:attribute name="name">
        <dia:string>#has#</dia:string>
      </dia:attribute>
      <dia:attribute name="left_card">
        <dia:string>##</dia:string>
      </dia:attribute>
      <dia:attribute name="right_card">
        <dia:string>##</dia:string>
      </dia:attribute>
      <dia:attribute name="identifying">
        <dia:boolean val="false"/>
      </dia:attribute>
      <dia:attribute name="rotated">
        <dia:boolean val="false"/>
      </dia:attribute>
      <dia:attribute name="font">
        <dia:font family="monospace" style="0" name="Courier"/>
      </dia:attribute>
      <dia:attribute name="font_height">
        <dia:real val="0.80000000000000004"/>
      </dia:attribute>
    </dia:object>
    <dia:object type="ER - Participation" version="1" id="O26">
      <dia:attribute name="obj_pos">
        <dia:point val="39.6625,6.94954"/>
      </dia:attribute>
      <dia:attribute name="obj_bb">
        <dia:rectangle val="38.5275,3.89349;39.7125,6.99954"/>
      </dia:attribute>
      <dia:attribute name="orth_points">
        <dia:point val="39.6625,6.94954"/>
        <dia:point val="39.6625,5.44651"/>
        <dia:point val="38.5775,5.44651"/>
        <dia:point val="38.5775,3.94349"/>
      </dia:attribute>
      <dia:attribute name="orth_orient">
        <dia:enum val="1"/>
        <dia:enum val="0"/>
        <dia:enum val="1"/>
      </dia:attribute>
      <dia:attribute name="autorouting">
        <dia:boolean val="true"/>
      </dia:attribute>
      <dia:attribute name="total">
        <dia:boolean val="false"/>
      </dia:attribute>
      <dia:connections>
        <dia:connection handle="0" to="O11" connection="8"/>
        <dia:connection handle="1" to="O25" connection="8"/>
      </dia:connections>
    </dia:object>
    <dia:object type="ER - Participation" version="1" id="O27">
      <dia:attribute name="obj_pos">
        <dia:point val="36.9502,2.9465"/>
      </dia:attribute>
      <dia:attribute name="obj_bb">
        <dia:rectangle val="34.0953,1.85;37.0002,2.9965"/>
      </dia:attribute>
      <dia:attribute name="orth_points">
        <dia:point val="36.9502,2.9465"/>
        <dia:point val="35.5477,2.9465"/>
        <dia:point val="35.5477,1.9"/>
        <dia:point val="34.1453,1.9"/>
      </dia:attribute>
      <dia:attribute name="orth_orient">
        <dia:enum val="0"/>
        <dia:enum val="1"/>
        <dia:enum val="0"/>
      </dia:attribute>
      <dia:attribute name="autorouting">
        <dia:boolean val="true"/>
      </dia:attribute>
      <dia:attribute name="total">
        <dia:boolean val="false"/>
      </dia:attribute>
      <dia:connections>
        <dia:connection handle="0" to="O25" connection="8"/>
        <dia:connection handle="1" to="O22" connection="8"/>
      </dia:connections>
    </dia:object>
    <dia:object type="ER - Participation" version="1" id="O28">
      <dia:attribute name="obj_pos">
        <dia:point val="29.54,-1.14954"/>
      </dia:attribute>
      <dia:attribute name="obj_bb">
        <dia:rectangle val="29.49,-1.19954;32.0975,0.999536"/>
      </dia:attribute>
      <dia:attribute name="orth_points">
        <dia:point val="29.54,-1.14954"/>
        <dia:point val="29.54,-0.1"/>
        <dia:point val="32.0475,-0.1"/>
        <dia:point val="32.0475,0.949536"/>
      </dia:attribute>
      <dia:attribute name="orth_orient">
        <dia:enum val="1"/>
        <dia:enum val="0"/>
        <dia:enum val="1"/>
      </dia:attribute>
      <dia:attribute name="autorouting">
        <dia:boolean val="true"/>
      </dia:attribute>
      <dia:attribute name="total">
        <dia:boolean val="false"/>
      </dia:attribute>
      <dia:connections>
        <dia:connection handle="0" to="O24" connection="8"/>
        <dia:connection handle="1" to="O22" connection="8"/>
      </dia:connections>
    </dia:object>
    <dia:object type="ER - Participation" version="1" id="O29">
      <dia:attribute name="obj_pos">
        <dia:point val="35.3475,-1.14954"/>
      </dia:attribute>
      <dia:attribute name="obj_bb">
        <dia:rectangle val="31.9975,-1.19954;35.3975,0.999536"/>
      </dia:attribute>
      <dia:attribute name="orth_points">
        <dia:point val="35.3475,-1.14954"/>
        <dia:point val="35.3475,-0.1"/>
        <dia:point val="32.0475,-0.1"/>
        <dia:point val="32.0475,0.949536"/>
      </dia:attribute>
      <dia:attribute name="orth_orient">
        <dia:enum val="1"/>
        <dia:enum val="0"/>
        <dia:enum val="1"/>
      </dia:attribute>
      <dia:attribute name="autorouting">
        <dia:boolean val="true"/>
      </dia:attribute>
      <dia:attribute name="total">
        <dia:boolean val="false"/>
      </dia:attribute>
      <dia:connections>
        <dia:connection handle="0" to="O23" connection="8"/>
        <dia:connection handle="1" to="O22" connection="8"/>
      </dia:connections>
    </dia:object>
    <dia:object type="ER - Attribute" version="0" id="O30">
      <dia:attribute name="obj_pos">
        <dia:point val="44,2"/>
      </dia:attribute>
      <dia:attribute name="obj_bb">
        <dia:rectangle val="43.95,1.95;48.36,3.85"/>
      </dia:attribute>
      <dia:attribute name="elem_corner">
        <dia:point val="44,2"/>
      </dia:attribute>
      <dia:attribute name="elem_width">
        <dia:real val="4.3100000000000005"/>
      </dia:attribute>
      <dia:attribute name="elem_height">
        <dia:real val="1.8"/>
      </dia:attribute>
      <dia:attribute name="border_width">
        <dia:real val="0.10000000000000001"/>
      </dia:attribute>
      <dia:attribute name="border_color">
        <dia:color val="#000000"/>
      </dia:attribute>
      <dia:attribute name="inner_color">
        <dia:color val="#ffffff"/>
      </dia:attribute>
      <dia:attribute name="name">
        <dia:string>#status#</dia:string>
      </dia:attribute>
      <dia:attribute name="key">
        <dia:boolean val="false"/>
      </dia:attribute>
      <dia:attribute name="weak_key">
        <dia:boolean val="false"/>
      </dia:attribute>
      <dia:attribute name="derived">
        <dia:boolean val="false"/>
      </dia:attribute>
      <dia:attribute name="multivalued">
        <dia:boolean val="false"/>
      </dia:attribute>
      <dia:attribute name="font">
        <dia:font family="monospace" style="0" name="Courier"/>
      </dia:attribute>
      <dia:attribute name="font_height">
        <dia:real val="0.80000000000000004"/>
      </dia:attribute>
    </dia:object>
    <dia:object type="ER - Participation" version="1" id="O31">
      <dia:attribute name="obj_pos">
        <dia:point val="41.3754,7.9"/>
      </dia:attribute>
      <dia:attribute name="obj_bb">
        <dia:rectangle val="41.3254,2.85;43.9997,7.95"/>
      </dia:attribute>
      <dia:attribute name="orth_points">
        <dia:point val="41.3754,7.9"/>
        <dia:point val="42.6626,7.9"/>
        <dia:point val="42.6626,2.9"/>
        <dia:point val="43.9497,2.9"/>
      </dia:attribute>
      <dia:attribute name="orth_orient">
        <dia:enum val="0"/>
        <dia:enum val="1"/>
        <dia:enum val="0"/>
      </dia:attribute>
      <dia:attribute name="autorouting">
        <dia:boolean val="true"/>
      </dia:attribute>
      <dia:attribute name="total">
        <dia:boolean val="false"/>
      </dia:attribute>
      <dia:connections>
        <dia:connection handle="0" to="O11" connection="8"/>
        <dia:connection handle="1" to="O30" connection="8"/>
      </dia:connections>
    </dia:object>
    <dia:object type="ER - Attribute" version="0" id="O32">
      <dia:attribute name="obj_pos">
        <dia:point val="50,8"/>
      </dia:attribute>
      <dia:attribute name="obj_bb">
        <dia:rectangle val="49.95,7.95;56.285,9.85"/>
      </dia:attribute>
      <dia:attribute name="elem_corner">
        <dia:point val="50,8"/>
      </dia:attribute>
      <dia:attribute name="elem_width">
        <dia:real val="6.2350000000000003"/>
      </dia:attribute>
      <dia:attribute name="elem_height">
        <dia:real val="1.8"/>
      </dia:attribute>
      <dia:attribute name="border_width">
        <dia:real val="0.10000000000000001"/>
      </dia:attribute>
      <dia:attribute name="border_color">
        <dia:color val="#000000"/>
      </dia:attribute>
      <dia:attribute name="inner_color">
        <dia:color val="#ffffff"/>
      </dia:attribute>
      <dia:attribute name="name">
        <dia:string>#description#</dia:string>
      </dia:attribute>
      <dia:attribute name="key">
        <dia:boolean val="false"/>
      </dia:attribute>
      <dia:attribute name="weak_key">
        <dia:boolean val="false"/>
      </dia:attribute>
      <dia:attribute name="derived">
        <dia:boolean val="false"/>
      </dia:attribute>
      <dia:attribute name="multivalued">
        <dia:boolean val="false"/>
      </dia:attribute>
      <dia:attribute name="font">
        <dia:font family="monospace" style="0" name="Courier"/>
      </dia:attribute>
      <dia:attribute name="font_height">
        <dia:real val="0.80000000000000004"/>
      </dia:attribute>
    </dia:object>
    <dia:object type="ER - Participation" version="1" id="O33">
      <dia:attribute name="obj_pos">
        <dia:point val="41.3754,7.9"/>
      </dia:attribute>
      <dia:attribute name="obj_bb">
        <dia:rectangle val="41.3254,7.85;49.9996,8.95"/>
      </dia:attribute>
      <dia:attribute name="orth_points">
        <dia:point val="41.3754,7.9"/>
        <dia:point val="45.6625,7.9"/>
        <dia:point val="45.6625,8.9"/>
        <dia:point val="49.9496,8.9"/>
      </dia:attribute>
      <dia:attribute name="orth_orient">
        <dia:enum val="0"/>
        <dia:enum val="1"/>
        <dia:enum val="0"/>
      </dia:attribute>
      <dia:attribute name="autorouting">
        <dia:boolean val="true"/>
      </dia:attribute>
      <dia:attribute name="total">
        <dia:boolean val="false"/>
      </dia:attribute>
      <dia:connections>
        <dia:connection handle="0" to="O11" connection="8"/>
        <dia:connection handle="1" to="O32" connection="8"/>
      </dia:connections>
    </dia:object>
    <dia:object type="ER - Participation" version="1" id="O34">
      <dia:attribute name="obj_pos">
        <dia:point val="32.0475,2.85046"/>
      </dia:attribute>
      <dia:attribute name="obj_bb">
        <dia:rectangle val="26.105,2.80046;32.0975,5.99967"/>
      </dia:attribute>
      <dia:attribute name="orth_points">
        <dia:point val="32.0475,2.85046"/>
        <dia:point val="32.0475,4.40007"/>
        <dia:point val="26.155,4.40007"/>
        <dia:point val="26.155,5.94967"/>
      </dia:attribute>
      <dia:attribute name="orth_orient">
        <dia:enum val="1"/>
        <dia:enum val="0"/>
        <dia:enum val="1"/>
      </dia:attribute>
      <dia:attribute name="autorouting">
        <dia:boolean val="true"/>
      </dia:attribute>
      <dia:attribute name="total">
        <dia:boolean val="false"/>
      </dia:attribute>
      <dia:connections>
        <dia:connection handle="0" to="O22" connection="8"/>
        <dia:connection handle="1" to="O12" connection="8"/>
      </dia:connections>
    </dia:object>
    <dia:object type="ER - Attribute" version="0" id="O35">
      <dia:attribute name="obj_pos">
        <dia:point val="23,0"/>
      </dia:attribute>
      <dia:attribute name="obj_bb">
        <dia:rectangle val="22.95,-0.05;28.515,1.85"/>
      </dia:attribute>
      <dia:attribute name="elem_corner">
        <dia:point val="23,0"/>
      </dia:attribute>
      <dia:attribute name="elem_width">
        <dia:real val="5.4649999999999999"/>
      </dia:attribute>
      <dia:attribute name="elem_height">
        <dia:real val="1.8"/>
      </dia:attribute>
      <dia:attribute name="border_width">
        <dia:real val="0.10000000000000001"/>
      </dia:attribute>
      <dia:attribute name="border_color">
        <dia:color val="#000000"/>
      </dia:attribute>
      <dia:attribute name="inner_color">
        <dia:color val="#ffffff"/>
      </dia:attribute>
      <dia:attribute name="name">
        <dia:string>#timestamp#</dia:string>
      </dia:attribute>
      <dia:attribute name="key">
        <dia:boolean val="false"/>
      </dia:attribute>
      <dia:attribute name="weak_key">
        <dia:boolean val="false"/>
      </dia:attribute>
      <dia:attribute name="derived">
        <dia:boolean val="false"/>
      </dia:attribute>
      <dia:attribute name="multivalued">
        <dia:boolean val="false"/>
      </dia:attribute>
      <dia:attribute name="font">
        <dia:font family="monospace" style="0" name="Courier"/>
      </dia:attribute>
      <dia:attribute name="font_height">
        <dia:real val="0.80000000000000004"/>
      </dia:attribute>
    </dia:object>
    <dia:object type="ER - Participation" version="1" id="O36">
      <dia:attribute name="obj_pos">
        <dia:point val="28.5153,0.9"/>
      </dia:attribute>
      <dia:attribute name="obj_bb">
        <dia:rectangle val="28.4653,0.85;29.9997,1.95"/>
      </dia:attribute>
      <dia:attribute name="orth_points">
        <dia:point val="28.5153,0.9"/>
        <dia:point val="29.2325,0.9"/>
        <dia:point val="29.2325,1.9"/>
        <dia:point val="29.9497,1.9"/>
      </dia:attribute>
      <dia:attribute name="orth_orient">
        <dia:enum val="0"/>
        <dia:enum val="1"/>
        <dia:enum val="0"/>
      </dia:attribute>
      <dia:attribute name="autorouting">
        <dia:boolean val="true"/>
      </dia:attribute>
      <dia:attribute name="total">
        <dia:boolean val="false"/>
      </dia:attribute>
      <dia:connections>
        <dia:connection handle="0" to="O35" connection="8"/>
        <dia:connection handle="1" to="O22" connection="8"/>
      </dia:connections>
    </dia:object>
    <dia:object type="ER - Attribute" version="0" id="O37">
      <dia:attribute name="obj_pos">
        <dia:point val="46,4"/>
      </dia:attribute>
      <dia:attribute name="obj_bb">
        <dia:rectangle val="45.95,3.95;51.515,5.85"/>
      </dia:attribute>
      <dia:attribute name="elem_corner">
        <dia:point val="46,4"/>
      </dia:attribute>
      <dia:attribute name="elem_width">
        <dia:real val="5.4649999999999999"/>
      </dia:attribute>
      <dia:attribute name="elem_height">
        <dia:real val="1.8"/>
      </dia:attribute>
      <dia:attribute name="border_width">
        <dia:real val="0.10000000000000001"/>
      </dia:attribute>
      <dia:attribute name="border_color">
        <dia:color val="#000000"/>
      </dia:attribute>
      <dia:attribute name="inner_color">
        <dia:color val="#ffffff"/>
      </dia:attribute>
      <dia:attribute name="name">
        <dia:string>#timestamp#</dia:string>
      </dia:attribute>
      <dia:attribute name="key">
        <dia:boolean val="false"/>
      </dia:attribute>
      <dia:attribute name="weak_key">
        <dia:boolean val="false"/>
      </dia:attribute>
      <dia:attribute name="derived">
        <dia:boolean val="false"/>
      </dia:attribute>
      <dia:attribute name="multivalued">
        <dia:boolean val="false"/>
      </dia:attribute>
      <dia:attribute name="font">
        <dia:font family="monospace" style="0" name="Courier"/>
      </dia:attribute>
      <dia:attribute name="font_height">
        <dia:real val="0.80000000000000004"/>
      </dia:attribute>
    </dia:object>
    <dia:object type="ER - Participation" version="1" id="O38">
      <dia:attribute name="obj_pos">
        <dia:point val="41.3754,7.9"/>
      </dia:attribute>
      <dia:attribute name="obj_bb">
        <dia:rectangle val="41.3254,4.85;45.9997,7.95"/>
      </dia:attribute>
      <dia:attribute name="orth_points">
        <dia:point val="41.3754,7.9"/>
        <dia:point val="43.6625,7.9"/>
        <dia:point val="43.6625,4.9"/>
        <dia:point val="45.9497,4.9"/>
      </dia:attribute>
      <dia:attribute name="orth_orient">
        <dia:enum val="0"/>
        <dia:enum val="1"/>
        <dia:enum val="0"/>
      </dia:attribute>
      <dia:attribute name="autorouting">
        <dia:boolean val="true"/>
      </dia:attribute>
      <dia:attribute name="total">
        <dia:boolean val="false"/>
      </dia:attribute>
      <dia:connections>
        <dia:connection handle="0" to="O11" connection="8"/>
        <dia:connection handle="1" to="O37" connection="8"/>
      </dia:connections>
    </dia:object>
    <dia:object type="ER - Attribute" version="0" id="O39">
      <dia:attribute name="obj_pos">
        <dia:point val="29,21"/>
      </dia:attribute>
      <dia:attribute name="obj_bb">
        <dia:rectangle val="28.95,20.95;34.515,22.85"/>
      </dia:attribute>
      <dia:attribute name="elem_corner">
        <dia:point val="29,21"/>
      </dia:attribute>
      <dia:attribute name="elem_width">
        <dia:real val="5.4649999999999999"/>
      </dia:attribute>
      <dia:attribute name="elem_height">
        <dia:real val="1.8"/>
      </dia:attribute>
      <dia:attribute name="border_width">
        <dia:real val="0.10000000000000001"/>
      </dia:attribute>
      <dia:attribute name="border_color">
        <dia:color val="#000000"/>
      </dia:attribute>
      <dia:attribute name="inner_color">
        <dia:color val="#ffffff"/>
      </dia:attribute>
      <dia:attribute name="name">
        <dia:string>#timestamp#</dia:string>
      </dia:attribute>
      <dia:attribute name="key">
        <dia:boolean val="false"/>
      </dia:attribute>
      <dia:attribute name="weak_key">
        <dia:boolean val="false"/>
      </dia:attribute>
      <dia:attribute name="derived">
        <dia:boolean val="false"/>
      </dia:attribute>
      <dia:attribute name="multivalued">
        <dia:boolean val="false"/>
      </dia:attribute>
      <dia:attribute name="font">
        <dia:font family="monospace" style="0" name="Courier"/>
      </dia:attribute>
      <dia:attribute name="font_height">
        <dia:real val="0.80000000000000004"/>
      </dia:attribute>
    </dia:object>
    <dia:object type="ER - Participation" version="1" id="O40">
      <dia:attribute name="obj_pos">
        <dia:point val="29.3475,18.8674"/>
      </dia:attribute>
      <dia:attribute name="obj_bb">
        <dia:rectangle val="29.2975,18.8174;31.7825,20.9995"/>
      </dia:attribute>
      <dia:attribute name="orth_points">
        <dia:point val="29.3475,18.8674"/>
        <dia:point val="29.3475,19.9084"/>
        <dia:point val="31.7325,19.9084"/>
        <dia:point val="31.7325,20.9495"/>
      </dia:attribute>
      <dia:attribute name="orth_orient">
        <dia:enum val="1"/>
        <dia:enum val="0"/>
        <dia:enum val="1"/>
      </dia:attribute>
      <dia:attribute name="autorouting">
        <dia:boolean val="true"/>
      </dia:attribute>
      <dia:attribute name="total">
        <dia:boolean val="false"/>
      </dia:attribute>
      <dia:connections>
        <dia:connection handle="0" to="O15" connection="8"/>
        <dia:connection handle="1" to="O39" connection="8"/>
      </dia:connections>
    </dia:object>
    <dia:object type="ER - Entity" version="0" id="O41">
      <dia:attribute name="obj_pos">
        <dia:point val="46,11"/>
      </dia:attribute>
      <dia:attribute name="obj_bb">
        <dia:rectangle val="45.95,10.95;48.99,12.85"/>
      </dia:attribute>
      <dia:attribute name="elem_corner">
        <dia:point val="46,11"/>
      </dia:attribute>
      <dia:attribute name="elem_width">
        <dia:real val="2.9399999999999999"/>
      </dia:attribute>
      <dia:attribute name="elem_height">
        <dia:real val="1.8"/>
      </dia:attribute>
      <dia:attribute name="border_width">
        <dia:real val="0.10000000000000001"/>
      </dia:attribute>
      <dia:attribute name="border_color">
        <dia:color val="#000000"/>
      </dia:attribute>
      <dia:attribute name="inner_color">
        <dia:color val="#ffffff"/>
      </dia:attribute>
      <dia:attribute name="name">
        <dia:string>#TYPE#</dia:string>
      </dia:attribute>
      <dia:attribute name="weak">
        <dia:boolean val="false"/>
      </dia:attribute>
      <dia:attribute name="associative">
        <dia:boolean val="false"/>
      </dia:attribute>
      <dia:attribute name="font">
        <dia:font family="monospace" style="0" name="Courier"/>
      </dia:attribute>
      <dia:attribute name="font_height">
        <dia:real val="0.80000000000000004"/>
      </dia:attribute>
    </dia:object>
    <dia:object type="ER - Relationship" version="0" id="O42">
      <dia:attribute name="obj_pos">
        <dia:point val="41,10"/>
      </dia:attribute>
      <dia:attribute name="obj_bb">
        <dia:rectangle val="40.65,9.95;44.12,11.712"/>
      </dia:attribute>
      <dia:attribute name="elem_corner">
        <dia:point val="41,10"/>
      </dia:attribute>
      <dia:attribute name="elem_width">
        <dia:real val="2.77"/>
      </dia:attribute>
      <dia:attribute name="elem_height">
        <dia:real val="1.6619999999999999"/>
      </dia:attribute>
      <dia:attribute name="border_width">
        <dia:real val="0.10000000000000001"/>
      </dia:attribute>
      <dia:attribute name="border_color">
        <dia:color val="#000000"/>
      </dia:attribute>
      <dia:attribute name="inner_color">
        <dia:color val="#ffffff"/>
      </dia:attribute>
      <dia:attribute name="name">
        <dia:string>#is#</dia:string>
      </dia:attribute>
      <dia:attribute name="left_card">
        <dia:string>##</dia:string>
      </dia:attribute>
      <dia:attribute name="right_card">
        <dia:string>##</dia:string>
      </dia:attribute>
      <dia:attribute name="identifying">
        <dia:boolean val="false"/>
      </dia:attribute>
      <dia:attribute name="rotated">
        <dia:boolean val="false"/>
      </dia:attribute>
      <dia:attribute name="font">
        <dia:font family="monospace" style="0" name="Courier"/>
      </dia:attribute>
      <dia:attribute name="font_height">
        <dia:real val="0.80000000000000004"/>
      </dia:attribute>
    </dia:object>
    <dia:object type="ER - Participation" version="1" id="O43">
      <dia:attribute name="obj_pos">
        <dia:point val="39.6625,8.85046"/>
      </dia:attribute>
      <dia:attribute name="obj_bb">
        <dia:rectangle val="39.6125,8.80046;41.0007,10.881"/>
      </dia:attribute>
      <dia:attribute name="orth_points">
        <dia:point val="39.6625,8.85046"/>
        <dia:point val="39.6625,10.831"/>
        <dia:point val="40.9507,10.831"/>
      </dia:attribute>
      <dia:attribute name="orth_orient">
        <dia:enum val="1"/>
        <dia:enum val="0"/>
      </dia:attribute>
      <dia:attribute name="autorouting">
        <dia:boolean val="true"/>
      </dia:attribute>
      <dia:attribute name="total">
        <dia:boolean val="false"/>
      </dia:attribute>
      <dia:connections>
        <dia:connection handle="0" to="O11" connection="8"/>
        <dia:connection handle="1" to="O42" connection="8"/>
      </dia:connections>
    </dia:object>
    <dia:object type="ER - Participation" version="1" id="O44">
      <dia:attribute name="obj_pos">
        <dia:point val="43.8193,10.831"/>
      </dia:attribute>
      <dia:attribute name="obj_bb">
        <dia:rectangle val="43.7693,10.781;45.9996,11.95"/>
      </dia:attribute>
      <dia:attribute name="orth_points">
        <dia:point val="43.8193,10.831"/>
        <dia:point val="44.8844,10.831"/>
        <dia:point val="44.8844,11.9"/>
        <dia:point val="45.9496,11.9"/>
      </dia:attribute>
      <dia:attribute name="orth_orient">
        <dia:enum val="0"/>
        <dia:enum val="1"/>
        <dia:enum val="0"/>
      </dia:attribute>
      <dia:attribute name="autorouting">
        <dia:boolean val="true"/>
      </dia:attribute>
      <dia:attribute name="total">
        <dia:boolean val="false"/>
      </dia:attribute>
      <dia:connections>
        <dia:connection handle="0" to="O42" connection="8"/>
        <dia:connection handle="1" to="O41" connection="8"/>
      </dia:connections>
    </dia:object>
    <dia:object type="ER - Attribute" version="0" id="O45">
      <dia:attribute name="obj_pos">
        <dia:point val="51,11"/>
      </dia:attribute>
      <dia:attribute name="obj_bb">
        <dia:rectangle val="50.95,10.95;53.82,12.85"/>
      </dia:attribute>
      <dia:attribute name="elem_corner">
        <dia:point val="51,11"/>
      </dia:attribute>
      <dia:attribute name="elem_width">
        <dia:real val="2.77"/>
      </dia:attribute>
      <dia:attribute name="elem_height">
        <dia:real val="1.8"/>
      </dia:attribute>
      <dia:attribute name="border_width">
        <dia:real val="0.10000000000000001"/>
      </dia:attribute>
      <dia:attribute name="border_color">
        <dia:color val="#000000"/>
      </dia:attribute>
      <dia:attribute name="inner_color">
        <dia:color val="#ffffff"/>
      </dia:attribute>
      <dia:attribute name="name">
        <dia:string>#id#</dia:string>
      </dia:attribute>
      <dia:attribute name="key">
        <dia:boolean val="true"/>
      </dia:attribute>
      <dia:attribute name="weak_key">
        <dia:boolean val="false"/>
      </dia:attribute>
      <dia:attribute name="derived">
        <dia:boolean val="false"/>
      </dia:attribute>
      <dia:attribute name="multivalued">
        <dia:boolean val="false"/>
      </dia:attribute>
      <dia:attribute name="font">
        <dia:font family="monospace" style="0" name="Courier"/>
      </dia:attribute>
      <dia:attribute name="font_height">
        <dia:real val="0.80000000000000004"/>
      </dia:attribute>
    </dia:object>
    <dia:object type="ER - Participation" version="1" id="O46">
      <dia:attribute name="obj_pos">
        <dia:point val="48.9904,11.9"/>
      </dia:attribute>
      <dia:attribute name="obj_bb">
        <dia:rectangle val="48.9404,11.85;50.9996,11.95"/>
      </dia:attribute>
      <dia:attribute name="orth_points">
        <dia:point val="48.9904,11.9"/>
        <dia:point val="49.0404,11.9"/>
        <dia:point val="50.8996,11.9"/>
        <dia:point val="50.9496,11.9"/>
      </dia:attribute>
      <dia:attribute name="orth_orient">
        <dia:enum val="0"/>
        <dia:enum val="1"/>
        <dia:enum val="0"/>
      </dia:attribute>
      <dia:attribute name="autorouting">
        <dia:boolean val="true"/>
      </dia:attribute>
      <dia:attribute name="total">
        <dia:boolean val="false"/>
      </dia:attribute>
      <dia:connections>
        <dia:connection handle="0" to="O41" connection="8"/>
        <dia:connection handle="1" to="O45" connection="8"/>
      </dia:connections>
    </dia:object>
    <dia:object type="ER - Attribute" version="0" id="O47">
      <dia:attribute name="obj_pos">
        <dia:point val="48,6"/>
      </dia:attribute>
      <dia:attribute name="obj_bb">
        <dia:rectangle val="47.95,5.95;51.975,7.85"/>
      </dia:attribute>
      <dia:attribute name="elem_corner">
        <dia:point val="48,6"/>
      </dia:attribute>
      <dia:attribute name="elem_width">
        <dia:real val="3.9249999999999998"/>
      </dia:attribute>
      <dia:attribute name="elem_height">
        <dia:real val="1.8"/>
      </dia:attribute>
      <dia:attribute name="border_width">
        <dia:real val="0.10000000000000001"/>
      </dia:attribute>
      <dia:attribute name="border_color">
        <dia:color val="#000000"/>
      </dia:attribute>
      <dia:attribute name="inner_color">
        <dia:color val="#ffffff"/>
      </dia:attribute>
      <dia:attribute name="name">
        <dia:string>#title#</dia:string>
      </dia:attribute>
      <dia:attribute name="key">
        <dia:boolean val="true"/>
      </dia:attribute>
      <dia:attribute name="weak_key">
        <dia:boolean val="false"/>
      </dia:attribute>
      <dia:attribute name="derived">
        <dia:boolean val="false"/>
      </dia:attribute>
      <dia:attribute name="multivalued">
        <dia:boolean val="false"/>
      </dia:attribute>
      <dia:attribute name="font">
        <dia:font family="monospace" style="0" name="Courier"/>
      </dia:attribute>
      <dia:attribute name="font_height">
        <dia:real val="0.80000000000000004"/>
      </dia:attribute>
    </dia:object>
    <dia:object type="ER - Participation" version="1" id="O48">
      <dia:attribute name="obj_pos">
        <dia:point val="47.9495,6.9"/>
      </dia:attribute>
      <dia:attribute name="obj_bb">
        <dia:rectangle val="41.3254,6.85;47.9995,7.95"/>
      </dia:attribute>
      <dia:attribute name="orth_points">
        <dia:point val="47.9495,6.9"/>
        <dia:point val="44.6625,6.9"/>
        <dia:point val="44.6625,7.9"/>
        <dia:point val="41.3754,7.9"/>
      </dia:attribute>
      <dia:attribute name="orth_orient">
        <dia:enum val="0"/>
        <dia:enum val="1"/>
        <dia:enum val="0"/>
      </dia:attribute>
      <dia:attribute name="autorouting">
        <dia:boolean val="true"/>
      </dia:attribute>
      <dia:attribute name="total">
        <dia:boolean val="false"/>
      </dia:attribute>
      <dia:connections>
        <dia:connection handle="0" to="O47" connection="8"/>
        <dia:connection handle="1" to="O11" connection="8"/>
      </dia:connections>
    </dia:object>
    <dia:object type="ER - Attribute" version="0" id="O49">
      <dia:attribute name="obj_pos">
        <dia:point val="44,-1"/>
      </dia:attribute>
      <dia:attribute name="obj_bb">
        <dia:rectangle val="43.95,-1.05;49.13,0.85"/>
      </dia:attribute>
      <dia:attribute name="elem_corner">
        <dia:point val="44,-1"/>
      </dia:attribute>
      <dia:attribute name="elem_width">
        <dia:real val="5.0800000000000001"/>
      </dia:attribute>
      <dia:attribute name="elem_height">
        <dia:real val="1.8"/>
      </dia:attribute>
      <dia:attribute name="border_width">
        <dia:real val="0.10000000000000001"/>
      </dia:attribute>
      <dia:attribute name="border_color">
        <dia:color val="#000000"/>
      </dia:attribute>
      <dia:attribute name="inner_color">
        <dia:color val="#ffffff"/>
      </dia:attribute>
      <dia:attribute name="name">
        <dia:string>#priority#</dia:string>
      </dia:attribute>
      <dia:attribute name="key">
        <dia:boolean val="false"/>
      </dia:attribute>
      <dia:attribute name="weak_key">
        <dia:boolean val="false"/>
      </dia:attribute>
      <dia:attribute name="derived">
        <dia:boolean val="false"/>
      </dia:attribute>
      <dia:attribute name="multivalued">
        <dia:boolean val="false"/>
      </dia:attribute>
      <dia:attribute name="font">
        <dia:font family="monospace" style="0" name="Courier"/>
      </dia:attribute>
      <dia:attribute name="font_height">
        <dia:real val="0.80000000000000004"/>
      </dia:attribute>
    </dia:object>
    <dia:object type="ER - Participation" version="1" id="O50">
      <dia:attribute name="obj_pos">
        <dia:point val="43.9497,-0.1"/>
      </dia:attribute>
      <dia:attribute name="obj_bb">
        <dia:rectangle val="41.3254,-0.15;43.9997,7.95"/>
      </dia:attribute>
      <dia:attribute name="orth_points">
        <dia:point val="43.9497,-0.1"/>
        <dia:point val="42.6626,-0.1"/>
        <dia:point val="42.6626,7.9"/>
        <dia:point val="41.3754,7.9"/>
      </dia:attribute>
      <dia:attribute name="orth_orient">
        <dia:enum val="0"/>
        <dia:enum val="1"/>
        <dia:enum val="0"/>
      </dia:attribute>
      <dia:attribute name="autorouting">
        <dia:boolean val="true"/>
      </dia:attribute>
      <dia:attribute name="total">
        <dia:boolean val="false"/>
      </dia:attribute>
      <dia:connections>
        <dia:connection handle="0" to="O49" connection="8"/>
        <dia:connection handle="1" to="O11" connection="8"/>
      </dia:connections>
    </dia:object>
    <dia:object type="ER - Relationship" version="0" id="O51">
      <dia:attribute name="obj_pos">
        <dia:point val="24,9"/>
      </dia:attribute>
      <dia:attribute name="obj_bb">
        <dia:rectangle val="23.65,8.95;29.43,12.098"/>
      </dia:attribute>
      <dia:attribute name="elem_corner">
        <dia:point val="24,9"/>
      </dia:attribute>
      <dia:attribute name="elem_width">
        <dia:real val="5.0800000000000001"/>
      </dia:attribute>
      <dia:attribute name="elem_height">
        <dia:real val="3.048"/>
      </dia:attribute>
      <dia:attribute name="border_width">
        <dia:real val="0.10000000000000001"/>
      </dia:attribute>
      <dia:attribute name="border_color">
        <dia:color val="#000000"/>
      </dia:attribute>
      <dia:attribute name="inner_color">
        <dia:color val="#ffffff"/>
      </dia:attribute>
      <dia:attribute name="name">
        <dia:string>#interest#</dia:string>
      </dia:attribute>
      <dia:attribute name="left_card">
        <dia:string>##</dia:string>
      </dia:attribute>
      <dia:attribute name="right_card">
        <dia:string>##</dia:string>
      </dia:attribute>
      <dia:attribute name="identifying">
        <dia:boolean val="false"/>
      </dia:attribute>
      <dia:attribute name="rotated">
        <dia:boolean val="false"/>
      </dia:attribute>
      <dia:attribute name="font">
        <dia:font family="monospace" style="0" name="Courier"/>
      </dia:attribute>
      <dia:attribute name="font_height">
        <dia:real val="0.80000000000000004"/>
      </dia:attribute>
    </dia:object>
    <dia:object type="ER - Participation" version="1" id="O52">
      <dia:attribute name="obj_pos">
        <dia:point val="20.9904,9.9"/>
      </dia:attribute>
      <dia:attribute name="obj_bb">
        <dia:rectangle val="20.9404,9.85;24.002,10.574"/>
      </dia:attribute>
      <dia:attribute name="orth_points">
        <dia:point val="20.9904,9.9"/>
        <dia:point val="22.4712,9.9"/>
        <dia:point val="22.4712,10.524"/>
        <dia:point val="23.952,10.524"/>
      </dia:attribute>
      <dia:attribute name="orth_orient">
        <dia:enum val="0"/>
        <dia:enum val="1"/>
        <dia:enum val="0"/>
      </dia:attribute>
      <dia:attribute name="autorouting">
        <dia:boolean val="true"/>
      </dia:attribute>
      <dia:attribute name="total">
        <dia:boolean val="false"/>
      </dia:attribute>
      <dia:connections>
        <dia:connection handle="0" to="O0" connection="8"/>
        <dia:connection handle="1" to="O51" connection="8"/>
      </dia:connections>
    </dia:object>
    <dia:object type="ER - Participation" version="1" id="O53">
      <dia:attribute name="obj_pos">
        <dia:point val="29.1301,10.524"/>
      </dia:attribute>
      <dia:attribute name="obj_bb">
        <dia:rectangle val="29.0801,7.85;38.0005,10.574"/>
      </dia:attribute>
      <dia:attribute name="orth_points">
        <dia:point val="29.1301,10.524"/>
        <dia:point val="33,10.524"/>
        <dia:point val="33,7.9"/>
        <dia:point val="37.9505,7.9"/>
      </dia:attribute>
      <dia:attribute name="orth_orient">
        <dia:enum val="0"/>
        <dia:enum val="1"/>
        <dia:enum val="0"/>
      </dia:attribute>
      <dia:attribute name="autorouting">
        <dia:boolean val="false"/>
      </dia:attribute>
      <dia:attribute name="total">
        <dia:boolean val="false"/>
      </dia:attribute>
      <dia:connections>
        <dia:connection handle="0" to="O51" connection="8"/>
        <dia:connection handle="1" to="O11" connection="8"/>
      </dia:connections>
    </dia:object>
    <dia:object type="ER - Attribute" version="0" id="O54">
      <dia:attribute name="obj_pos">
        <dia:point val="21,13"/>
      </dia:attribute>
      <dia:attribute name="obj_bb">
        <dia:rectangle val="20.95,12.95;25.36,14.85"/>
      </dia:attribute>
      <dia:attribute name="elem_corner">
        <dia:point val="21,13"/>
      </dia:attribute>
      <dia:attribute name="elem_width">
        <dia:real val="4.3100000000000005"/>
      </dia:attribute>
      <dia:attribute name="elem_height">
        <dia:real val="1.8"/>
      </dia:attribute>
      <dia:attribute name="border_width">
        <dia:real val="0.10000000000000001"/>
      </dia:attribute>
      <dia:attribute name="border_color">
        <dia:color val="#000000"/>
      </dia:attribute>
      <dia:attribute name="inner_color">
        <dia:color val="#ffffff"/>
      </dia:attribute>
      <dia:attribute name="name">
        <dia:string>#status#</dia:string>
      </dia:attribute>
      <dia:attribute name="key">
        <dia:boolean val="false"/>
      </dia:attribute>
      <dia:attribute name="weak_key">
        <dia:boolean val="false"/>
      </dia:attribute>
      <dia:attribute name="derived">
        <dia:boolean val="false"/>
      </dia:attribute>
      <dia:attribute name="multivalued">
        <dia:boolean val="false"/>
      </dia:attribute>
      <dia:attribute name="font">
        <dia:font family="monospace" style="0" name="Courier"/>
      </dia:attribute>
      <dia:attribute name="font_height">
        <dia:real val="0.80000000000000004"/>
      </dia:attribute>
    </dia:object>
    <dia:object type="ER - Participation" version="1" id="O55">
      <dia:attribute name="obj_pos">
        <dia:point val="26.54,12.0984"/>
      </dia:attribute>
      <dia:attribute name="obj_bb">
        <dia:rectangle val="25.3103,12.0484;26.59,13.95"/>
      </dia:attribute>
      <dia:attribute name="orth_points">
        <dia:point val="26.54,12.0984"/>
        <dia:point val="26.54,13.9"/>
        <dia:point val="25.3603,13.9"/>
      </dia:attribute>
      <dia:attribute name="orth_orient">
        <dia:enum val="1"/>
        <dia:enum val="0"/>
      </dia:attribute>
      <dia:attribute name="autorouting">
        <dia:boolean val="true"/>
      </dia:attribute>
      <dia:attribute name="total">
        <dia:boolean val="false"/>
      </dia:attribute>
      <dia:connections>
        <dia:connection handle="0" to="O51" connection="8"/>
        <dia:connection handle="1" to="O54" connection="8"/>
      </dia:connections>
    </dia:object>
  </dia:layer>
</dia:diagram>
